\relax 
\providecommand\hyper@newdestlabel[2]{}
\catcode `:\active 
\catcode `;\active 
\catcode `!\active 
\catcode `?\active 
\providecommand\HyperFirstAtBeginDocument{\AtBeginDocument}
\HyperFirstAtBeginDocument{\ifx\hyper@anchor\@undefined
\global\let\oldcontentsline\contentsline
\gdef\contentsline#1#2#3#4{\oldcontentsline{#1}{#2}{#3}}
\global\let\oldnewlabel\newlabel
\gdef\newlabel#1#2{\newlabelxx{#1}#2}
\gdef\newlabelxx#1#2#3#4#5#6{\oldnewlabel{#1}{{#2}{#3}}}
\AtEndDocument{\ifx\hyper@anchor\@undefined
\let\contentsline\oldcontentsline
\let\newlabel\oldnewlabel
\fi}
\fi}
\global\let\hyper@last\relax 
\gdef\HyperFirstAtBeginDocument#1{#1}
\providecommand\HyField@AuxAddToFields[1]{}
\providecommand\HyField@AuxAddToCoFields[2]{}
\select@language{french}
\@writefile{toc}{\select@language{french}}
\@writefile{lof}{\select@language{french}}
\@writefile{lot}{\select@language{french}}
\@writefile{toc}{\contentsline {chapter}{INTRODUCTION G\IeC {\'E}N\IeC {\'E}RALE}{3}{chapter*.2}}
\@writefile{toc}{\contentsline {chapter}{\numberline {1}INTRODUCTION AU TRAITEMENT ET L'ANALYSE DE VID\IeC {\'E}O}{4}{chapter.1}}
\@writefile{lof}{\addvspace {10\p@ }}
\@writefile{lot}{\addvspace {10\p@ }}
\@writefile{toc}{\contentsline {section}{\numberline {I.}Introduction}{4}{section.1.1}}
\@writefile{lof}{\contentsline {figure}{\numberline {1.1}{\ignorespaces \textit  {Image variant avec le temps}\relax }}{4}{figure.1.1}}
\@writefile{toc}{\contentsline {section}{\numberline {II.}Vid\IeC {\'e}o num\IeC {\'e}rique et analogique}{4}{section.1.2}}
\@writefile{lof}{\contentsline {figure}{\numberline {1.2}{\ignorespaces \textit  {Vid\IeC {\'e}o Analogique}\relax }}{5}{figure.1.2}}
\@writefile{toc}{\contentsline {subsection}{\numberline {1.}Vid\IeC {\'e}o Num\IeC {\'e}rique}{5}{subsection.1.2.1}}
\@writefile{toc}{\contentsline {subsection}{\numberline {2.}Sous-\IeC {\'e}chantillonnage }{6}{subsection.1.2.2}}
\@writefile{toc}{\contentsline {section}{\numberline {III.}Segmentation s\IeC {\'e}mantique}{6}{section.1.3}}
\@writefile{lof}{\contentsline {figure}{\numberline {1.3}{\ignorespaces \textit  {Segmentation s\IeC {\'e}mantique}\relax }}{6}{figure.1.3}}
\@writefile{toc}{\contentsline {section}{\numberline {IV.}Conclusion}{6}{section.1.4}}
\@writefile{toc}{\contentsline {chapter}{\numberline {2}SUIVRE ET DETECTION D'OBJETS YOLO AVEC OPENCV}{7}{chapter.2}}
\@writefile{lof}{\addvspace {10\p@ }}
\@writefile{lot}{\addvspace {10\p@ }}
\@writefile{toc}{\contentsline {section}{\numberline {I.}Introduction}{7}{section.2.1}}
\@writefile{toc}{\contentsline {section}{\numberline {II.}Classification d'images}{8}{section.2.2}}
\@writefile{lof}{\contentsline {figure}{\numberline {2.1}{\ignorespaces \textit  {Architecture du r\IeC {\'e}seau LeNet-5 de Yann LeCun}\relax }}{9}{figure.2.1}}
\@writefile{lof}{\contentsline {figure}{\numberline {2.2}{\ignorespaces \textit  {Principe de la convolution}\relax }}{9}{figure.2.2}}
\@writefile{lof}{\contentsline {figure}{\numberline {2.3}{\ignorespaces \textit  {Principe du max pooling}\relax }}{10}{figure.2.3}}
\@writefile{toc}{\contentsline {section}{\numberline {III.}D\IeC {\'e}tection d'objet dans une image }{10}{section.2.3}}
\@writefile{lof}{\contentsline {figure}{\numberline {2.4}{\ignorespaces \textit  {Dimension des outputs du mod\IeC {\`e}le YOLO v3}\relax }}{11}{figure.2.4}}
\@writefile{lof}{\contentsline {figure}{\numberline {2.5}{\ignorespaces \textit  {Architecture globale de la version 3 du mod\IeC {\`e}le YOLO}\relax }}{12}{figure.2.5}}
\@writefile{toc}{\contentsline {chapter}{\numberline {3}CODE ET SIMULATION}{15}{chapter.3}}
\@writefile{lof}{\addvspace {10\p@ }}
\@writefile{lot}{\addvspace {10\p@ }}
\@writefile{toc}{\contentsline {chapter}{WEBOGRAPHIE}{18}{lstnumber.-1.99}}
